%YAML 1.1
%TAG !u! tag:unity3d.com,2011:
--- !u!1045 &1
EditorBuildSettings:
  m_ObjectHideFlags: 0
  serializedVersion: 2
  m_Scenes:
  - enabled: 1
    path: Assets/Scenes/MainMenu.unity
    guid: ef461d7e31de86441b0b773b1da0ba63
  - enabled: 1
    path: "Assets/Scenes/Prueba_Generaci\xF3n.unity"
    guid: 2cda990e2423bbf4892e6590ba056729
  - enabled: 1
    path: Assets/Scenes/Tutorial.unity
    guid: 35376f5403644994885fe1a6e1ae5320
  m_configObjects: {}
